<?xml version="1.0" encoding="utf-8"?>
<!-- Generator: Adobe Illustrator 22.0.0, SVG Export Plug-In . SVG Version: 6.00 Build 0)  -->
<svg version="1.1" id="Layer_1" xmlns="http://www.w3.org/2000/svg" xmlns:xlink="http://www.w3.org/1999/xlink" x="0px" y="0px"
	 viewBox="0 0 24 24" style="enable-background:new 0 0 24 24;" xml:space="preserve">
<style type="text/css">
	.st0{fill:#B51F09;}
	.st1{fill:none;}
	.st2{fill:none;stroke:#FFFFFF;stroke-miterlimit:10;}
	.st3{fill:none;stroke:#FFFFFF;stroke-linejoin:round;stroke-miterlimit:10;}
</style>
<path class="st0" d="M10,4H4C2.9,4,2,4.9,2,6l0,12c0,1.1,0.9,2,2,2h16c1.1,0,2-0.9,2-2V8c0-1.1-0.9-2-2-2h-8L10,4z"/>
<path class="st1" d="M0,0h24v24H0V0z"/>
<g>
	<polyline class="st2" points="14.9,14.6 16.9,14.6 16.9,12.4 16.9,10.7 14.9,10.7 	"/>
	<polyline class="st2" points="11.5,10.7 7.1,10.7 7.1,14.6 11.5,14.6 	"/>
	<line class="st2" x1="8.6" y1="12.7" x2="11" y2="12.7"/>
	<path class="st3" d="M15.6,8.8h-1c-0.5,0-1,0.4-1,1v5.8c0,0.5,0.4,1,1,1h1"/>
	<path class="st3" d="M11.7,16.6h1c0.5,0,1-0.4,1-1V9.8c0-0.5-0.4-1-1-1h-1"/>
</g>
</svg>
