<svg xmlns="http://www.w3.org/2000/svg" width="16" height="19.453" viewBox="0 0 16 19.453">
  <path id="grave-stone" d="M134.222,85.333h3.556c2.946,0,4.444,2.393,4.444,5.345v9.492a13.867,13.867,0,0,0-12.444,0V90.678C129.778,87.726,131.276,85.333,134.222,85.333Zm-1.778,5.345v1.336h7.111V90.678Zm.889,3.563v1.336h5.333V94.242ZM128,104.786v-2.253c2.363-1.5,9.092-4.873,16-.049v2.3Z" transform="translate(-128 -85.333)" fill="#4e0b0b"/>
</svg>
